MQP.sim/sim_1/behav/xsim/simulate.log
Time resolution is 1 ps
Solving System of Equations
Equation 1: 0100110110011101
Equation 2: 1011000011010110
Equation 3: 1100110100101001
Equation 4: 1111011001110010
Equation 5: 0101100110111010
Equation 6: 0100001001100100
Equation 7: 0000001011010101
Equation 8: 0110110011110110
Equation 9: 0010001001010101
Equation 10: 1110000001000010
Equation 11: 1011010001011011
Equation 12: 0010111111000010
Equation 13: 1111110110100000
Equation 14: 0110100111010100
Equation 15: 0000100100010001
Equation 16: 1010001111001101
Solution not found at this state
Solution not found at this state
Solution not found at this state
Solution Found: X1 = 1, X2 = 0, X3 = 0, X4 = 0, X5 = 0
Solution Found: X1 = 0, X2 = 1, X3 = 0, X4 = 0, X5 = 0
Solution Found: X1 = 1, X2 = 1, X3 = 0, X4 = 0, X5 = 0
Solution Found: X1 = 0, X2 = 0, X3 = 1, X4 = 0, X5 = 0
Solution not found at this state
Solution not found at this state
Solution Found: X1 = 1, X2 = 0, X3 = 1, X4 = 0, X5 = 0
Solution Found: X1 = 0, X2 = 1, X3 = 1, X4 = 0, X5 = 0
Solution not found at this state
Solution not found at this state
Solution not found at this state
Solution Found: X1 = 0, X2 = 0, X3 = 0, X4 = 1, X5 = 0
Solution Found: X1 = 1, X2 = 0, X3 = 0, X4 = 1, X5 = 0
Solution not found at this state
Solution not found at this state
Solution not found at this state
Solution not found at this state
Solution not found at this state
Solution not found at this state
Solution Found: X1 = 1, X2 = 0, X3 = 1, X4 = 1, X5 = 0
Solution Found: X1 = 0, X2 = 1, X3 = 1, X4 = 1, X5 = 0
Solution not found at this state
Solution not found at this state
Solution not found at this state
Solution not found at this state
Solution not found at this state
Solution Found: X1 = 0, X2 = 1, X3 = 0, X4 = 0, X5 = 1
Solution Found: X1 = 1, X2 = 1, X3 = 0, X4 = 0, X5 = 1
Solution not found at this state
Solution not found at this state
Solution not found at this state
Solution not found at this state
Solution not found at this state
Solution not found at this state
Solution Found: X1 = 1, X2 = 1, X3 = 1, X4 = 0, X5 = 1
Solution Found: X1 = 0, X2 = 0, X3 = 0, X4 = 1, X5 = 1
Solution not found at this state
Solution not found at this state
Solution not found at this state
Solution Found: X1 = 0, X2 = 1, X3 = 0, X4 = 1, X5 = 1
Solution Found: X1 = 1, X2 = 1, X3 = 0, X4 = 1, X5 = 1
Solution not found at this state
Solution not found at this state
Solution Found: X1 = 0, X2 = 0, X3 = 1, X4 = 1, X5 = 1
Solution Found: X1 = 1, X2 = 0, X3 = 1, X4 = 1, X5 = 1
Solution Found: X1 = 0, X2 = 1, X3 = 1, X4 = 1, X5 = 1
Solution Found: X1 = 0, X2 = 1, X3 = 1, X4 = 1, X5 = 1
Solution Found: X1 = 1, X2 = 1, X3 = 1, X4 = 1, X5 = 1
Solution not found at this state
Solving System of Equations
Equation 1: 0100110110011101
Equation 2: 1011000011010110
Equation 3: 1100110100101001
Equation 4: 1111011001110010
Equation 5: 0101100110111010
Equation 6: 0100001001100100
Equation 7: 0000001011010101
Equation 8: 0110110011110110
Equation 9: 0010001001010101
Equation 10: 1110000001000010
Equation 11: 1011010001011011
Equation 12: 0010111111000010
Equation 13: 1111110110100000
Equation 14: 0110100111010100
Equation 15: 0000100100010001
Equation 16: 1010001111001101
Solution not found at this state
Solution not found at this state
Solution not found at this state
Solution Found: X1 = 1, X2 = 0, X3 = 0, X4 = 0, X5 = 0
Solution Found: X1 = 0, X2 = 1, X3 = 0, X4 = 0, X5 = 0
Solution Found: X1 = 1, X2 = 1, X3 = 0, X4 = 0, X5 = 0
Solution Found: X1 = 0, X2 = 0, X3 = 1, X4 = 0, X5 = 0
Solution not found at this state
Solution not found at this state
Solution Found: X1 = 1, X2 = 0, X3 = 1, X4 = 0, X5 = 0
Solution Found: X1 = 0, X2 = 1, X3 = 1, X4 = 0, X5 = 0
Solution not found at this state
Solution not found at this state
Solution not found at this state
Solution Found: X1 = 0, X2 = 0, X3 = 0, X4 = 1, X5 = 0
Solution Found: X1 = 1, X2 = 0, X3 = 0, X4 = 1, X5 = 0
Solution not found at this state
Solution not found at this state
Solution not found at this state
Solution not found at this state
Solution not found at this state
Solution not found at this state
Solution Found: X1 = 1, X2 = 0, X3 = 1, X4 = 1, X5 = 0
Solution Found: X1 = 0, X2 = 1, X3 = 1, X4 = 1, X5 = 0
Solution not found at this state
Solution not found at this state
Solution not found at this state
Solution not found at this state
Solution not found at this state
Solution Found: X1 = 0, X2 = 1, X3 = 0, X4 = 0, X5 = 1
Solution Found: X1 = 1, X2 = 1, X3 = 0, X4 = 0, X5 = 1
Solution not found at this state
Solution not found at this state
Solution not found at this state
Solution not found at this state
Solution not found at this state
Solution not found at this state
Solution Found: X1 = 1, X2 = 1, X3 = 1, X4 = 0, X5 = 1
Solution Found: X1 = 0, X2 = 0, X3 = 0, X4 = 1, X5 = 1
Solution not found at this state
Solution not found at this state
Solution not found at this state
Solution Found: X1 = 0, X2 = 1, X3 = 0, X4 = 1, X5 = 1
Solution Found: X1 = 1, X2 = 1, X3 = 0, X4 = 1, X5 = 1
Solution not found at this state
Solution not found at this state
Solution Found: X1 = 0, X2 = 0, X3 = 1, X4 = 1, X5 = 1
Solution Found: X1 = 1, X2 = 0, X3 = 1, X4 = 1, X5 = 1
Solution Found: X1 = 0, X2 = 1, X3 = 1, X4 = 1, X5 = 1
Solution Found: X1 = 0, X2 = 1, X3 = 1, X4 = 1, X5 = 1
Solution Found: X1 = 1, X2 = 1, X3 = 1, X4 = 1, X5 = 1
Solution not found at this state
