MQP.sim/sim_1/behav/xsim/simulate.log
Time resolution is 1 ps
System #                                       1 Found!
eq1 = 000011000
eq2 = 000010100

Solution Found! X1 = 0, X2 = 0, X3 = 0, X4 = 0
Solution Found! X1 = 1, X2 = 0, X3 = 0, X4 = 0
Solution Found! X1 = 0, X2 = 1, X3 = 0, X4 = 0
Solution Found! X1 = 0, X2 = 0, X3 = 1, X4 = 0
Solution Found! X1 = 1, X2 = 0, X3 = 1, X4 = 0
Solution Found! X1 = 1, X2 = 1, X3 = 1, X4 = 0
Solution Found! X1 = 0, X2 = 0, X3 = 0, X4 = 1
Solution Found! X1 = 1, X2 = 0, X3 = 0, X4 = 1
Solution Found! X1 = 0, X2 = 1, X3 = 0, X4 = 1
Solution Found! X1 = 0, X2 = 0, X3 = 1, X4 = 1
Solution Found! X1 = 1, X2 = 0, X3 = 1, X4 = 1
Solution Found! X1 = 1, X2 = 1, X3 = 1, X4 = 1
Number of solutions:  12

System #                                       2 Found!
eq1 = 000011000
eq2 = 000100100

Solution Found! X1 = 0, X2 = 0, X3 = 0, X4 = 0
Solution Found! X1 = 0, X2 = 0, X3 = 0, X4 = 0
Solution Found! X1 = 1, X2 = 0, X3 = 0, X4 = 0
Solution Found! X1 = 0, X2 = 1, X3 = 0, X4 = 0
Solution Found! X1 = 0, X2 = 0, X3 = 1, X4 = 0
Solution Found! X1 = 1, X2 = 0, X3 = 1, X4 = 0
Solution Found! X1 = 1, X2 = 1, X3 = 1, X4 = 1
Number of solutions:   7

System #                                       3 Found!
eq1 = 000011000
eq2 = 000101000

Solution Found! X1 = 0, X2 = 0, X3 = 0, X4 = 0
Solution Found! X1 = 0, X2 = 0, X3 = 0, X4 = 0
Solution Found! X1 = 1, X2 = 0, X3 = 0, X4 = 0
Solution Found! X1 = 0, X2 = 1, X3 = 0, X4 = 0
Solution Found! X1 = 0, X2 = 0, X3 = 1, X4 = 0
Solution Found! X1 = 1, X2 = 0, X3 = 1, X4 = 0
Solution Found! X1 = 0, X2 = 0, X3 = 1, X4 = 1
Solution Found! X1 = 1, X2 = 0, X3 = 1, X4 = 1
Number of solutions:   8

System #                                       4 Found!
eq1 = 000011000
eq2 = 000110000

Solution Found! X1 = 0, X2 = 0, X3 = 0, X4 = 0
Solution Found! X1 = 0, X2 = 0, X3 = 0, X4 = 0
Solution Found! X1 = 1, X2 = 0, X3 = 0, X4 = 0
Solution Found! X1 = 0, X2 = 1, X3 = 0, X4 = 0
Solution Found! X1 = 0, X2 = 0, X3 = 1, X4 = 0
Solution Found! X1 = 1, X2 = 0, X3 = 1, X4 = 0
Solution Found! X1 = 0, X2 = 0, X3 = 1, X4 = 1
Solution Found! X1 = 1, X2 = 0, X3 = 1, X4 = 1
Number of solutions:   8

System #                                       5 Found!
eq1 = 000011000
eq2 = 001000100

Solution Found! X1 = 0, X2 = 0, X3 = 0, X4 = 0
Solution Found! X1 = 0, X2 = 0, X3 = 0, X4 = 0
Solution Found! X1 = 1, X2 = 0, X3 = 0, X4 = 0
Solution Found! X1 = 0, X2 = 1, X3 = 0, X4 = 0
Solution Found! X1 = 1, X2 = 1, X3 = 1, X4 = 0
Solution Found! X1 = 0, X2 = 0, X3 = 0, X4 = 1
Solution Found! X1 = 1, X2 = 0, X3 = 0, X4 = 1
Solution Found! X1 = 0, X2 = 1, X3 = 0, X4 = 1
Solution Found! X1 = 1, X2 = 1, X3 = 1, X4 = 1
Number of solutions:   9

System #                                       6 Found!
eq1 = 000011000
eq2 = 001001000

Solution Found! X1 = 0, X2 = 0, X3 = 0, X4 = 0
Solution Found! X1 = 0, X2 = 0, X3 = 0, X4 = 0
Solution Found! X1 = 1, X2 = 0, X3 = 0, X4 = 0
Solution Found! X1 = 0, X2 = 1, X3 = 0, X4 = 0
Solution Found! X1 = 1, X2 = 1, X3 = 1, X4 = 0
Solution Found! X1 = 0, X2 = 0, X3 = 0, X4 = 1
Solution Found! X1 = 1, X2 = 0, X3 = 0, X4 = 1
Solution Found! X1 = 0, X2 = 1, X3 = 0, X4 = 1
Solution Found! X1 = 0, X2 = 0, X3 = 1, X4 = 1
Solution Found! X1 = 1, X2 = 0, X3 = 1, X4 = 1
Number of solutions:  10

System #                                       7 Found!
eq1 = 000011000
eq2 = 001010000

Solution Found! X1 = 0, X2 = 0, X3 = 0, X4 = 0
Solution Found! X1 = 0, X2 = 0, X3 = 0, X4 = 0
Solution Found! X1 = 1, X2 = 0, X3 = 0, X4 = 0
Solution Found! X1 = 0, X2 = 1, X3 = 0, X4 = 0
Solution Found! X1 = 1, X2 = 1, X3 = 1, X4 = 0
Solution Found! X1 = 0, X2 = 0, X3 = 0, X4 = 1
Solution Found! X1 = 1, X2 = 0, X3 = 0, X4 = 1
Solution Found! X1 = 0, X2 = 1, X3 = 0, X4 = 1
Solution Found! X1 = 0, X2 = 0, X3 = 1, X4 = 1
Solution Found! X1 = 1, X2 = 0, X3 = 1, X4 = 1
Number of solutions:  10

System #                                       8 Found!
eq1 = 000011000
eq2 = 001100000

Solution Found! X1 = 0, X2 = 0, X3 = 0, X4 = 0
Solution Found! X1 = 0, X2 = 0, X3 = 0, X4 = 0
Solution Found! X1 = 1, X2 = 0, X3 = 0, X4 = 0
Solution Found! X1 = 0, X2 = 1, X3 = 0, X4 = 0
Number of solutions:   4

System #                                       9 Found!
eq1 = 000011000
eq2 = 010000100

Solution Found! X1 = 0, X2 = 0, X3 = 0, X4 = 0
Solution Found! X1 = 0, X2 = 0, X3 = 0, X4 = 0
Solution Found! X1 = 1, X2 = 0, X3 = 0, X4 = 0
Solution Found! X1 = 0, X2 = 0, X3 = 1, X4 = 0
Solution Found! X1 = 1, X2 = 0, X3 = 1, X4 = 0
Solution Found! X1 = 1, X2 = 1, X3 = 1, X4 = 0
Solution Found! X1 = 0, X2 = 0, X3 = 0, X4 = 1
Solution Found! X1 = 1, X2 = 0, X3 = 0, X4 = 1
Solution Found! X1 = 0, X2 = 0, X3 = 1, X4 = 1
Solution Found! X1 = 1, X2 = 0, X3 = 1, X4 = 1
Solution Found! X1 = 1, X2 = 1, X3 = 1, X4 = 1
Number of solutions:  11

System #                                      10 Found!
eq1 = 000011000
eq2 = 010001000

Solution Found! X1 = 0, X2 = 0, X3 = 0, X4 = 0
Solution Found! X1 = 0, X2 = 0, X3 = 0, X4 = 0
Solution Found! X1 = 1, X2 = 0, X3 = 0, X4 = 0
Solution Found! X1 = 0, X2 = 0, X3 = 1, X4 = 0
Solution Found! X1 = 1, X2 = 0, X3 = 1, X4 = 0
Solution Found! X1 = 1, X2 = 1, X3 = 1, X4 = 0
Solution Found! X1 = 0, X2 = 0, X3 = 0, X4 = 1
Solution Found! X1 = 1, X2 = 0, X3 = 0, X4 = 1
Number of solutions:   8

System #                                      11 Found!
eq1 = 000011000
eq2 = 010010000

Solution Found! X1 = 0, X2 = 0, X3 = 0, X4 = 0
Solution Found! X1 = 0, X2 = 0, X3 = 0, X4 = 0
Solution Found! X1 = 1, X2 = 0, X3 = 0, X4 = 0
Solution Found! X1 = 0, X2 = 0, X3 = 1, X4 = 0
Solution Found! X1 = 1, X2 = 0, X3 = 1, X4 = 0
Solution Found! X1 = 1, X2 = 1, X3 = 1, X4 = 0
Solution Found! X1 = 0, X2 = 0, X3 = 0, X4 = 1
Solution Found! X1 = 1, X2 = 0, X3 = 0, X4 = 1
Number of solutions:   8

System #                                      12 Found!
eq1 = 000011000
eq2 = 010100000

Solution Found! X1 = 0, X2 = 0, X3 = 0, X4 = 0
Solution Found! X1 = 0, X2 = 0, X3 = 0, X4 = 0
Solution Found! X1 = 1, X2 = 0, X3 = 0, X4 = 0
Solution Found! X1 = 0, X2 = 0, X3 = 1, X4 = 0
Solution Found! X1 = 1, X2 = 0, X3 = 1, X4 = 0
Solution Found! X1 = 0, X2 = 1, X3 = 0, X4 = 1
Solution Found! X1 = 0, X2 = 0, X3 = 1, X4 = 1
Solution Found! X1 = 1, X2 = 0, X3 = 1, X4 = 1
Number of solutions:   8

System #                                      13 Found!
eq1 = 000011000
eq2 = 011000000

Solution Found! X1 = 0, X2 = 0, X3 = 0, X4 = 0
Solution Found! X1 = 0, X2 = 0, X3 = 0, X4 = 0
Solution Found! X1 = 1, X2 = 0, X3 = 0, X4 = 0
Solution Found! X1 = 1, X2 = 1, X3 = 1, X4 = 0
Solution Found! X1 = 0, X2 = 0, X3 = 0, X4 = 1
Solution Found! X1 = 1, X2 = 0, X3 = 0, X4 = 1
Solution Found! X1 = 0, X2 = 0, X3 = 1, X4 = 1
Solution Found! X1 = 1, X2 = 0, X3 = 1, X4 = 1
Number of solutions:   8

System #                                      14 Found!
eq1 = 000011000
eq2 = 100000100

Solution Found! X1 = 0, X2 = 0, X3 = 0, X4 = 0
Solution Found! X1 = 0, X2 = 1, X3 = 0, X4 = 0
Solution Found! X1 = 0, X2 = 0, X3 = 1, X4 = 0
Solution Found! X1 = 1, X2 = 1, X3 = 1, X4 = 0
Solution Found! X1 = 0, X2 = 0, X3 = 0, X4 = 1
Solution Found! X1 = 0, X2 = 1, X3 = 0, X4 = 1
Solution Found! X1 = 0, X2 = 0, X3 = 1, X4 = 1
Solution Found! X1 = 1, X2 = 1, X3 = 1, X4 = 1
Number of solutions:   8

System #                                      15 Found!
eq1 = 000011000
eq2 = 100001000

Solution Found! X1 = 0, X2 = 0, X3 = 0, X4 = 0
Solution Found! X1 = 0, X2 = 1, X3 = 0, X4 = 0
Solution Found! X1 = 0, X2 = 0, X3 = 1, X4 = 0
Solution Found! X1 = 1, X2 = 1, X3 = 1, X4 = 0
Solution Found! X1 = 0, X2 = 0, X3 = 0, X4 = 1
Solution Found! X1 = 0, X2 = 1, X3 = 0, X4 = 1
Solution Found! X1 = 1, X2 = 0, X3 = 1, X4 = 1
Number of solutions:   7

System #                                      16 Found!
eq1 = 000011000
eq2 = 100010000

Solution Found! X1 = 0, X2 = 0, X3 = 0, X4 = 0
Solution Found! X1 = 0, X2 = 1, X3 = 0, X4 = 0
Solution Found! X1 = 0, X2 = 0, X3 = 1, X4 = 0
Solution Found! X1 = 1, X2 = 1, X3 = 1, X4 = 0
Solution Found! X1 = 0, X2 = 0, X3 = 0, X4 = 1
Solution Found! X1 = 0, X2 = 1, X3 = 0, X4 = 1
Solution Found! X1 = 1, X2 = 0, X3 = 1, X4 = 1
Number of solutions:   7

System #                                      17 Found!
eq1 = 000011000
eq2 = 100100000

Solution Found! X1 = 0, X2 = 0, X3 = 0, X4 = 0
Solution Found! X1 = 0, X2 = 1, X3 = 0, X4 = 0
Solution Found! X1 = 0, X2 = 0, X3 = 1, X4 = 0
Solution Found! X1 = 1, X2 = 0, X3 = 0, X4 = 1
Solution Found! X1 = 0, X2 = 0, X3 = 1, X4 = 1
Number of solutions:   5

System #                                      18 Found!
eq1 = 000011000
eq2 = 101000000

Solution Found! X1 = 0, X2 = 0, X3 = 0, X4 = 0
Solution Found! X1 = 0, X2 = 1, X3 = 0, X4 = 0
Solution Found! X1 = 1, X2 = 0, X3 = 1, X4 = 0
Solution Found! X1 = 1, X2 = 1, X3 = 1, X4 = 0
Solution Found! X1 = 0, X2 = 0, X3 = 0, X4 = 1
Solution Found! X1 = 0, X2 = 1, X3 = 0, X4 = 1
Solution Found! X1 = 0, X2 = 0, X3 = 1, X4 = 1
Number of solutions:   7

System #                                      19 Found!
eq1 = 000011000
eq2 = 110000000

Solution Found! X1 = 0, X2 = 0, X3 = 0, X4 = 0
Solution Found! X1 = 0, X2 = 0, X3 = 1, X4 = 0
Solution Found! X1 = 1, X2 = 1, X3 = 1, X4 = 0
Solution Found! X1 = 0, X2 = 0, X3 = 0, X4 = 1
Solution Found! X1 = 1, X2 = 0, X3 = 1, X4 = 1
Number of solutions:   5

System #                                      20 Found!
eq1 = 000101000
eq2 = 000100100

Solution Found! X1 = 0, X2 = 0, X3 = 0, X4 = 0
Solution Found! X1 = 0, X2 = 0, X3 = 0, X4 = 0
Solution Found! X1 = 1, X2 = 0, X3 = 0, X4 = 0
Solution Found! X1 = 0, X2 = 1, X3 = 0, X4 = 0
Solution Found! X1 = 1, X2 = 1, X3 = 0, X4 = 0
Solution Found! X1 = 0, X2 = 0, X3 = 1, X4 = 0
Solution Found! X1 = 1, X2 = 0, X3 = 1, X4 = 0
Solution Found! X1 = 0, X2 = 1, X3 = 1, X4 = 1
Solution Found! X1 = 1, X2 = 1, X3 = 1, X4 = 1
Number of solutions:   9

System #                                      21 Found!
eq1 = 000101000
eq2 = 000110000

Solution Found! X1 = 0, X2 = 0, X3 = 0, X4 = 0
Solution Found! X1 = 0, X2 = 0, X3 = 0, X4 = 0
Solution Found! X1 = 1, X2 = 0, X3 = 0, X4 = 0
Solution Found! X1 = 0, X2 = 1, X3 = 0, X4 = 0
Solution Found! X1 = 0, X2 = 0, X3 = 1, X4 = 0
Solution Found! X1 = 1, X2 = 0, X3 = 1, X4 = 0
Solution Found! X1 = 0, X2 = 1, X3 = 1, X4 = 1
Number of solutions:   7

System #                                      22 Found!
eq1 = 000101000
eq2 = 001000100

Solution Found! X1 = 0, X2 = 0, X3 = 0, X4 = 0
Solution Found! X1 = 0, X2 = 0, X3 = 0, X4 = 0
Solution Found! X1 = 1, X2 = 0, X3 = 0, X4 = 0
Solution Found! X1 = 0, X2 = 1, X3 = 0, X4 = 0
Solution Found! X1 = 1, X2 = 1, X3 = 0, X4 = 0
Solution Found! X1 = 0, X2 = 1, X3 = 1, X4 = 1
Solution Found! X1 = 1, X2 = 1, X3 = 1, X4 = 1
Number of solutions:   7

System #                                      23 Found!
eq1 = 000101000
eq2 = 001001000

Solution Found! X1 = 0, X2 = 0, X3 = 0, X4 = 0
Solution Found! X1 = 0, X2 = 0, X3 = 0, X4 = 0
Solution Found! X1 = 1, X2 = 0, X3 = 0, X4 = 0
Solution Found! X1 = 0, X2 = 1, X3 = 0, X4 = 0
Solution Found! X1 = 1, X2 = 1, X3 = 0, X4 = 0
Number of solutions:   5

System #                                      24 Found!
eq1 = 000101000
eq2 = 001010000

Solution Found! X1 = 0, X2 = 0, X3 = 0, X4 = 0
Solution Found! X1 = 0, X2 = 0, X3 = 0, X4 = 0
Solution Found! X1 = 1, X2 = 0, X3 = 0, X4 = 0
Solution Found! X1 = 0, X2 = 1, X3 = 0, X4 = 0
Solution Found! X1 = 0, X2 = 1, X3 = 1, X4 = 1
Number of solutions:   5

System #                                      25 Found!
eq1 = 000101000
eq2 = 001100000

Solution Found! X1 = 0, X2 = 0, X3 = 0, X4 = 0
Solution Found! X1 = 0, X2 = 0, X3 = 0, X4 = 0
Solution Found! X1 = 1, X2 = 0, X3 = 0, X4 = 0
Solution Found! X1 = 0, X2 = 1, X3 = 0, X4 = 0
Solution Found! X1 = 1, X2 = 1, X3 = 0, X4 = 0
Number of solutions:   5

System #                                      26 Found!
eq1 = 000101000
eq2 = 010000100

Solution Found! X1 = 0, X2 = 0, X3 = 0, X4 = 0
Solution Found! X1 = 0, X2 = 0, X3 = 0, X4 = 0
Solution Found! X1 = 1, X2 = 0, X3 = 0, X4 = 0
Solution Found! X1 = 0, X2 = 0, X3 = 1, X4 = 0
Solution Found! X1 = 1, X2 = 0, X3 = 1, X4 = 0
Solution Found! X1 = 0, X2 = 1, X3 = 1, X4 = 1
Solution Found! X1 = 1, X2 = 1, X3 = 1, X4 = 1
Number of solutions:   7

System #                                      27 Found!
eq1 = 000101000
eq2 = 010001000

Solution Found! X1 = 0, X2 = 0, X3 = 0, X4 = 0
Solution Found! X1 = 0, X2 = 0, X3 = 0, X4 = 0
Solution Found! X1 = 1, X2 = 0, X3 = 0, X4 = 0
Solution Found! X1 = 0, X2 = 0, X3 = 1, X4 = 0
Solution Found! X1 = 1, X2 = 0, X3 = 1, X4 = 0
Number of solutions:   5

System #                                      28 Found!
eq1 = 000101000
eq2 = 010010000

Solution Found! X1 = 0, X2 = 0, X3 = 0, X4 = 0
Solution Found! X1 = 0, X2 = 0, X3 = 0, X4 = 0
Solution Found! X1 = 1, X2 = 0, X3 = 0, X4 = 0
Solution Found! X1 = 1, X2 = 1, X3 = 0, X4 = 0
Solution Found! X1 = 0, X2 = 0, X3 = 1, X4 = 0
Solution Found! X1 = 1, X2 = 0, X3 = 1, X4 = 0
Solution Found! X1 = 0, X2 = 1, X3 = 1, X4 = 1
Number of solutions:   7

System #                                      29 Found!
eq1 = 000101000
eq2 = 010100000

Solution Found! X1 = 0, X2 = 0, X3 = 0, X4 = 0
Solution Found! X1 = 0, X2 = 0, X3 = 0, X4 = 0
Solution Found! X1 = 1, X2 = 0, X3 = 0, X4 = 0
Solution Found! X1 = 0, X2 = 0, X3 = 1, X4 = 0
Solution Found! X1 = 1, X2 = 0, X3 = 1, X4 = 0
Number of solutions:   5

System #                                      30 Found!
eq1 = 000101000
eq2 = 011000000

Solution Found! X1 = 0, X2 = 0, X3 = 0, X4 = 0
Solution Found! X1 = 0, X2 = 0, X3 = 0, X4 = 0
Solution Found! X1 = 1, X2 = 0, X3 = 0, X4 = 0
Number of solutions:   3

System #                                      31 Found!
eq1 = 000101000
eq2 = 100000100

Solution Found! X1 = 0, X2 = 0, X3 = 0, X4 = 0
Solution Found! X1 = 0, X2 = 1, X3 = 0, X4 = 0
Solution Found! X1 = 0, X2 = 0, X3 = 1, X4 = 0
Solution Found! X1 = 1, X2 = 1, X3 = 1, X4 = 1
Number of solutions:   4

System #                                      32 Found!
eq1 = 000101000
eq2 = 100001000

Solution Found! X1 = 0, X2 = 0, X3 = 0, X4 = 0
Solution Found! X1 = 0, X2 = 1, X3 = 0, X4 = 0
Solution Found! X1 = 0, X2 = 0, X3 = 1, X4 = 0
Solution Found! X1 = 0, X2 = 1, X3 = 1, X4 = 1
Number of solutions:   4

System #                                      33 Found!
eq1 = 000101000
eq2 = 100010000

Solution Found! X1 = 0, X2 = 0, X3 = 0, X4 = 0
Solution Found! X1 = 0, X2 = 1, X3 = 0, X4 = 0
Solution Found! X1 = 1, X2 = 1, X3 = 0, X4 = 0
Solution Found! X1 = 0, X2 = 0, X3 = 1, X4 = 0
Number of solutions:   4

System #                                      34 Found!
eq1 = 000101000
eq2 = 100100000

Solution Found! X1 = 0, X2 = 0, X3 = 0, X4 = 0
Solution Found! X1 = 0, X2 = 1, X3 = 0, X4 = 0
Solution Found! X1 = 0, X2 = 0, X3 = 1, X4 = 0
Solution Found! X1 = 0, X2 = 1, X3 = 1, X4 = 1
Number of solutions:   4

System #                                      35 Found!
eq1 = 000101000
eq2 = 101000000

Solution Found! X1 = 0, X2 = 0, X3 = 0, X4 = 0
Solution Found! X1 = 0, X2 = 1, X3 = 0, X4 = 0
Solution Found! X1 = 1, X2 = 0, X3 = 1, X4 = 0
Solution Found! X1 = 0, X2 = 1, X3 = 1, X4 = 1
Number of solutions:   4

System #                                      36 Found!
eq1 = 000101000
eq2 = 110000000

Solution Found! X1 = 0, X2 = 0, X3 = 0, X4 = 0
Solution Found! X1 = 1, X2 = 1, X3 = 0, X4 = 0
Solution Found! X1 = 0, X2 = 0, X3 = 1, X4 = 0
Solution Found! X1 = 0, X2 = 1, X3 = 1, X4 = 1
Number of solutions:   4

System #                                      37 Found!
eq1 = 000110000
eq2 = 001000100

Solution Found! X1 = 0, X2 = 0, X3 = 0, X4 = 0
Solution Found! X1 = 0, X2 = 0, X3 = 0, X4 = 0
Solution Found! X1 = 1, X2 = 0, X3 = 0, X4 = 0
Solution Found! X1 = 0, X2 = 1, X3 = 0, X4 = 0
Solution Found! X1 = 0, X2 = 1, X3 = 1, X4 = 0
Solution Found! X1 = 1, X2 = 1, X3 = 0, X4 = 1
Solution Found! X1 = 1, X2 = 1, X3 = 1, X4 = 1
Number of solutions:   7

System #                                      38 Found!
eq1 = 000110000
eq2 = 001001000

Solution Found! X1 = 0, X2 = 0, X3 = 0, X4 = 0
Solution Found! X1 = 0, X2 = 0, X3 = 0, X4 = 0
Solution Found! X1 = 1, X2 = 0, X3 = 0, X4 = 0
Solution Found! X1 = 0, X2 = 1, X3 = 0, X4 = 0
Solution Found! X1 = 0, X2 = 1, X3 = 1, X4 = 0
Solution Found! X1 = 1, X2 = 1, X3 = 0, X4 = 1
Number of solutions:   6

System #                                      39 Found!
eq1 = 000110000
eq2 = 001010000

Solution Found! X1 = 0, X2 = 0, X3 = 0, X4 = 0
Solution Found! X1 = 0, X2 = 0, X3 = 0, X4 = 0
Solution Found! X1 = 1, X2 = 0, X3 = 0, X4 = 0
Solution Found! X1 = 0, X2 = 1, X3 = 0, X4 = 0
Number of solutions:   4

System #                                      40 Found!
eq1 = 000110000
eq2 = 001100000

Solution Found! X1 = 0, X2 = 0, X3 = 0, X4 = 0
Solution Found! X1 = 0, X2 = 0, X3 = 0, X4 = 0
Solution Found! X1 = 1, X2 = 0, X3 = 0, X4 = 0
Solution Found! X1 = 0, X2 = 1, X3 = 0, X4 = 0
Number of solutions:   4

System #                                      41 Found!
eq1 = 000110000
eq2 = 010000100

Solution Found! X1 = 0, X2 = 0, X3 = 0, X4 = 0
Solution Found! X1 = 0, X2 = 0, X3 = 0, X4 = 0
Solution Found! X1 = 1, X2 = 0, X3 = 0, X4 = 0
Solution Found! X1 = 0, X2 = 0, X3 = 1, X4 = 0
Solution Found! X1 = 1, X2 = 0, X3 = 1, X4 = 0
Solution Found! X1 = 0, X2 = 1, X3 = 1, X4 = 0
Solution Found! X1 = 1, X2 = 1, X3 = 1, X4 = 1
Number of solutions:   7

System #                                      42 Found!
eq1 = 000110000
eq2 = 010001000

Solution Found! X1 = 0, X2 = 0, X3 = 0, X4 = 0
Solution Found! X1 = 0, X2 = 0, X3 = 0, X4 = 0
Solution Found! X1 = 1, X2 = 0, X3 = 0, X4 = 0
Solution Found! X1 = 0, X2 = 0, X3 = 1, X4 = 0
Solution Found! X1 = 1, X2 = 0, X3 = 1, X4 = 0
Solution Found! X1 = 0, X2 = 1, X3 = 1, X4 = 0
Number of solutions:   6

System #                                      43 Found!
eq1 = 000110000
eq2 = 010010000

Solution Found! X1 = 0, X2 = 0, X3 = 0, X4 = 0
Solution Found! X1 = 0, X2 = 0, X3 = 0, X4 = 0
Solution Found! X1 = 1, X2 = 0, X3 = 0, X4 = 0
Solution Found! X1 = 0, X2 = 0, X3 = 1, X4 = 0
Solution Found! X1 = 1, X2 = 0, X3 = 1, X4 = 0
Solution Found! X1 = 1, X2 = 1, X3 = 0, X4 = 1
Number of solutions:   6

System #                                      44 Found!
eq1 = 000110000
eq2 = 010100000

Solution Found! X1 = 0, X2 = 0, X3 = 0, X4 = 0
Solution Found! X1 = 0, X2 = 0, X3 = 0, X4 = 0
Solution Found! X1 = 1, X2 = 0, X3 = 0, X4 = 0
Solution Found! X1 = 0, X2 = 0, X3 = 1, X4 = 0
Solution Found! X1 = 1, X2 = 0, X3 = 1, X4 = 0
Solution Found! X1 = 1, X2 = 1, X3 = 0, X4 = 1
Number of solutions:   6

System #                                      45 Found!
eq1 = 000110000
eq2 = 011000000

Solution Found! X1 = 0, X2 = 0, X3 = 0, X4 = 0
Solution Found! X1 = 0, X2 = 0, X3 = 0, X4 = 0
Solution Found! X1 = 1, X2 = 0, X3 = 0, X4 = 0
Solution Found! X1 = 0, X2 = 1, X3 = 1, X4 = 0
Number of solutions:   4

System #                                      46 Found!
eq1 = 000110000
eq2 = 100000100

Solution Found! X1 = 0, X2 = 0, X3 = 0, X4 = 0
Solution Found! X1 = 0, X2 = 1, X3 = 0, X4 = 0
Solution Found! X1 = 0, X2 = 0, X3 = 1, X4 = 0
Solution Found! X1 = 1, X2 = 1, X3 = 1, X4 = 1
Number of solutions:   4

System #                                      47 Found!
eq1 = 000110000
eq2 = 100001000

Solution Found! X1 = 0, X2 = 0, X3 = 0, X4 = 0
Solution Found! X1 = 0, X2 = 1, X3 = 0, X4 = 0
Solution Found! X1 = 0, X2 = 0, X3 = 1, X4 = 0
Number of solutions:   3

System #                                      48 Found!
eq1 = 000110000
eq2 = 100010000

Solution Found! X1 = 0, X2 = 0, X3 = 0, X4 = 0
Solution Found! X1 = 0, X2 = 1, X3 = 0, X4 = 0
Solution Found! X1 = 0, X2 = 0, X3 = 1, X4 = 0
Solution Found! X1 = 0, X2 = 1, X3 = 1, X4 = 0
Solution Found! X1 = 1, X2 = 1, X3 = 0, X4 = 1
Number of solutions:   5

System #                                      49 Found!
eq1 = 000110000
eq2 = 100100000

Solution Found! X1 = 0, X2 = 0, X3 = 0, X4 = 0
Solution Found! X1 = 0, X2 = 1, X3 = 0, X4 = 0
Solution Found! X1 = 0, X2 = 0, X3 = 1, X4 = 0
Solution Found! X1 = 0, X2 = 1, X3 = 1, X4 = 0
Solution Found! X1 = 1, X2 = 1, X3 = 0, X4 = 1
Number of solutions:   5

System #                                      50 Found!
eq1 = 000110000
eq2 = 101000000

Solution Found! X1 = 0, X2 = 0, X3 = 0, X4 = 0
Solution Found! X1 = 0, X2 = 1, X3 = 0, X4 = 0
Solution Found! X1 = 1, X2 = 0, X3 = 1, X4 = 0
Number of solutions:   3

System #                                      51 Found!
eq1 = 000110000
eq2 = 110000000

Solution Found! X1 = 0, X2 = 0, X3 = 0, X4 = 0
Solution Found! X1 = 0, X2 = 0, X3 = 1, X4 = 0
Solution Found! X1 = 1, X2 = 1, X3 = 0, X4 = 1
Number of solutions:   3

System #                                      52 Found!
eq1 = 001001000
eq2 = 001000100

Solution Found! X1 = 0, X2 = 0, X3 = 0, X4 = 0
Solution Found! X1 = 0, X2 = 0, X3 = 0, X4 = 0
Solution Found! X1 = 1, X2 = 0, X3 = 0, X4 = 0
Solution Found! X1 = 0, X2 = 1, X3 = 0, X4 = 0
Solution Found! X1 = 1, X2 = 1, X3 = 0, X4 = 0
Solution Found! X1 = 0, X2 = 1, X3 = 1, X4 = 0
Solution Found! X1 = 1, X2 = 1, X3 = 1, X4 = 0
Solution Found! X1 = 0, X2 = 0, X3 = 0, X4 = 1
Solution Found! X1 = 1, X2 = 0, X3 = 0, X4 = 1
Solution Found! X1 = 0, X2 = 1, X3 = 0, X4 = 1
Solution Found! X1 = 1, X2 = 1, X3 = 0, X4 = 1
Solution Found! X1 = 0, X2 = 1, X3 = 1, X4 = 1
Solution Found! X1 = 1, X2 = 1, X3 = 1, X4 = 1
Number of solutions:  13

System #                                      53 Found!
eq1 = 001001000
eq2 = 001010000

Solution Found! X1 = 0, X2 = 0, X3 = 0, X4 = 0
Solution Found! X1 = 0, X2 = 0, X3 = 0, X4 = 0
Solution Found! X1 = 1, X2 = 0, X3 = 0, X4 = 0
Solution Found! X1 = 0, X2 = 1, X3 = 0, X4 = 0
Solution Found! X1 = 1, X2 = 1, X3 = 1, X4 = 0
Solution Found! X1 = 0, X2 = 0, X3 = 0, X4 = 1
Solution Found! X1 = 1, X2 = 0, X3 = 0, X4 = 1
Solution Found! X1 = 0, X2 = 1, X3 = 0, X4 = 1
Solution Found! X1 = 0, X2 = 1, X3 = 1, X4 = 1
Number of solutions:   9

System #                                      54 Found!
eq1 = 001001000
eq2 = 001100000

Solution Found! X1 = 0, X2 = 0, X3 = 0, X4 = 0
Solution Found! X1 = 0, X2 = 0, X3 = 0, X4 = 0
Solution Found! X1 = 1, X2 = 0, X3 = 0, X4 = 0
Solution Found! X1 = 0, X2 = 1, X3 = 0, X4 = 0
Solution Found! X1 = 1, X2 = 1, X3 = 0, X4 = 0
Number of solutions:   5

System #                                      55 Found!
eq1 = 001001000
eq2 = 010000100

Solution Found! X1 = 0, X2 = 0, X3 = 0, X4 = 0
Solution Found! X1 = 0, X2 = 0, X3 = 0, X4 = 0
Solution Found! X1 = 1, X2 = 0, X3 = 0, X4 = 0
Solution Found! X1 = 0, X2 = 1, X3 = 1, X4 = 0
Solution Found! X1 = 1, X2 = 1, X3 = 1, X4 = 0
Solution Found! X1 = 0, X2 = 0, X3 = 0, X4 = 1
Solution Found! X1 = 1, X2 = 0, X3 = 0, X4 = 1
Solution Found! X1 = 0, X2 = 1, X3 = 1, X4 = 1
Solution Found! X1 = 1, X2 = 1, X3 = 1, X4 = 1
Number of solutions:   9

System #                                      56 Found!
eq1 = 001001000
eq2 = 010001000

Solution Found! X1 = 0, X2 = 0, X3 = 0, X4 = 0
Solution Found! X1 = 0, X2 = 0, X3 = 0, X4 = 0
Solution Found! X1 = 1, X2 = 0, X3 = 0, X4 = 0
Solution Found! X1 = 0, X2 = 1, X3 = 1, X4 = 0
Solution Found! X1 = 1, X2 = 1, X3 = 1, X4 = 0
Solution Found! X1 = 0, X2 = 0, X3 = 0, X4 = 1
Solution Found! X1 = 1, X2 = 0, X3 = 0, X4 = 1
Number of solutions:   7

System #                                      57 Found!
eq1 = 001001000
eq2 = 010010000

Solution Found! X1 = 0, X2 = 0, X3 = 0, X4 = 0
Solution Found! X1 = 0, X2 = 0, X3 = 0, X4 = 0
Solution Found! X1 = 1, X2 = 0, X3 = 0, X4 = 0
Solution Found! X1 = 1, X2 = 1, X3 = 0, X4 = 0
Solution Found! X1 = 1, X2 = 1, X3 = 1, X4 = 0
Solution Found! X1 = 0, X2 = 0, X3 = 0, X4 = 1
Solution Found! X1 = 1, X2 = 0, X3 = 0, X4 = 1
Solution Found! X1 = 1, X2 = 1, X3 = 0, X4 = 1
Solution Found! X1 = 0, X2 = 1, X3 = 1, X4 = 1
Number of solutions:   9

System #                                      58 Found!
eq1 = 001001000
eq2 = 010100000

Solution Found! X1 = 0, X2 = 0, X3 = 0, X4 = 0
Solution Found! X1 = 0, X2 = 0, X3 = 0, X4 = 0
Solution Found! X1 = 1, X2 = 0, X3 = 0, X4 = 0
Solution Found! X1 = 0, X2 = 1, X3 = 0, X4 = 1
Solution Found! X1 = 1, X2 = 1, X3 = 0, X4 = 1
Number of solutions:   5

System #                                      59 Found!
eq1 = 001001000
eq2 = 011000000

